%YAML 1.1
%TAG !u! tag:unity3d.com,2011:
--- !u!29 &1
OcclusionCullingSettings:
  m_ObjectHideFlags: 0
  serializedVersion: 2
  m_OcclusionBakeSettings:
    smallestOccluder: 5
    smallestHole: 0.25
    backfaceThreshold: 100
  m_SceneGUID: 00000000000000000000000000000000
  m_OcclusionCullingData: {fileID: 0}
--- !u!104 &2
RenderSettings:
  m_ObjectHideFlags: 0
  serializedVersion: 8
  m_Fog: 0
  m_FogColor: {r: 0.5, g: 0.5, b: 0.5, a: 1}
  m_FogMode: 3
  m_FogDensity: 0.01
  m_LinearFogStart: 0
  m_LinearFogEnd: 300
  m_AmbientSkyColor: {r: 0.212, g: 0.227, b: 0.259, a: 1}
  m_AmbientEquatorColor: {r: 0.114, g: 0.125, b: 0.133, a: 1}
  m_AmbientGroundColor: {r: 0.047, g: 0.043, b: 0.035, a: 1}
  m_AmbientIntensity: 1
  m_AmbientMode: 0
  m_SubtractiveShadowColor: {r: 0.42, g: 0.478, b: 0.627, a: 1}
  m_SkyboxMaterial: {fileID: 10304, guid: 0000000000000000f000000000000000, type: 0}
  m_HaloStrength: 0.5
  m_FlareStrength: 1
  m_FlareFadeSpeed: 3
  m_HaloTexture: {fileID: 0}
  m_SpotCookie: {fileID: 10001, guid: 0000000000000000e000000000000000, type: 0}
  m_DefaultReflectionMode: 0
  m_DefaultReflectionResolution: 128
  m_ReflectionBounces: 1
  m_ReflectionIntensity: 1
  m_CustomReflection: {fileID: 0}
  m_Sun: {fileID: 0}
  m_IndirectSpecularColor: {r: 0.18029505, g: 0.22572652, b: 0.30692935, a: 1}
--- !u!157 &4
LightmapSettings:
  m_ObjectHideFlags: 0
  serializedVersion: 11
  m_GIWorkflowMode: 0
  m_GISettings:
    serializedVersion: 2
    m_BounceScale: 1
    m_IndirectOutputScale: 1
    m_AlbedoBoost: 1
    m_TemporalCoherenceThreshold: 1
    m_EnvironmentLightingMode: 0
    m_EnableBakedLightmaps: 1
    m_EnableRealtimeLightmaps: 1
  m_LightmapEditorSettings:
    serializedVersion: 9
    m_Resolution: 2
    m_BakeResolution: 40
    m_TextureWidth: 1024
    m_TextureHeight: 1024
    m_AO: 0
    m_AOMaxDistance: 1
    m_CompAOExponent: 0
    m_CompAOExponentDirect: 0
    m_Padding: 2
    m_LightmapParameters: {fileID: 0}
    m_LightmapsBakeMode: 1
    m_TextureCompression: 1
    m_FinalGather: 0
    m_FinalGatherFiltering: 1
    m_FinalGatherRayCount: 1024
    m_ReflectionCompression: 2
    m_MixedBakeMode: 1
    m_BakeBackend: 0
    m_PVRSampling: 1
    m_PVRDirectSampleCount: 32
    m_PVRSampleCount: 500
    m_PVRBounces: 2
    m_PVRFilterTypeDirect: 0
    m_PVRFilterTypeIndirect: 0
    m_PVRFilterTypeAO: 0
    m_PVRFilteringMode: 0
    m_PVRCulling: 1
    m_PVRFilteringGaussRadiusDirect: 1
    m_PVRFilteringGaussRadiusIndirect: 5
    m_PVRFilteringGaussRadiusAO: 2
    m_PVRFilteringAtrousPositionSigmaDirect: 0.5
    m_PVRFilteringAtrousPositionSigmaIndirect: 2
    m_PVRFilteringAtrousPositionSigmaAO: 1
    m_ShowResolutionOverlay: 1
  m_LightingDataAsset: {fileID: 0}
  m_UseShadowmask: 0
--- !u!196 &5
NavMeshSettings:
  serializedVersion: 2
  m_ObjectHideFlags: 0
  m_BuildSettings:
    serializedVersion: 2
    agentTypeID: 0
    agentRadius: 0.5
    agentHeight: 2
    agentSlope: 45
    agentClimb: 0.4
    ledgeDropHeight: 0
    maxJumpAcrossDistance: 0
    minRegionArea: 2
    manualCellSize: 0
    cellSize: 0.16666667
    manualTileSize: 0
    tileSize: 256
    accuratePlacement: 0
    debug:
      m_Flags: 0
  m_NavMeshData: {fileID: 0}
--- !u!1 &23538588
GameObject:
  m_ObjectHideFlags: 0
  m_PrefabParentObject: {fileID: 185424, guid: dc429c520592d0249982bd99760652f7, type: 2}
  m_PrefabInternal: {fileID: 555508115}
  serializedVersion: 5
  m_Component:
  - component: {fileID: 23538589}
  m_Layer: 0
  m_Name: mountain_canyon_04
  m_TagString: Untagged
  m_Icon: {fileID: 0}
  m_NavMeshLayer: 0
  m_StaticEditorFlags: 0
  m_IsActive: 1
--- !u!4 &23538589
Transform:
  m_ObjectHideFlags: 0
  m_PrefabParentObject: {fileID: 494284, guid: dc429c520592d0249982bd99760652f7, type: 2}
  m_PrefabInternal: {fileID: 555508115}
  m_GameObject: {fileID: 23538588}
  m_LocalRotation: {x: 0, y: 0, z: 0, w: 1}
  m_LocalPosition: {x: 0, y: 0, z: 0}
  m_LocalScale: {x: 1, y: 1, z: 1}
  m_Children:
  - {fileID: 967759356}
  m_Father: {fileID: 0}
  m_RootOrder: 3
  m_LocalEulerAnglesHint: {x: 0, y: 0, z: 0}
--- !u!1001 &118179586
Prefab:
  m_ObjectHideFlags: 0
  serializedVersion: 2
  m_Modification:
    m_TransformParent: {fileID: 0}
    m_Modifications:
    - target: {fileID: 467324, guid: 214de7dc16249324db357bf6519b54af, type: 2}
      propertyPath: m_LocalPosition.x
      value: 0
      objectReference: {fileID: 0}
    - target: {fileID: 467324, guid: 214de7dc16249324db357bf6519b54af, type: 2}
      propertyPath: m_LocalPosition.y
      value: 0
      objectReference: {fileID: 0}
    - target: {fileID: 467324, guid: 214de7dc16249324db357bf6519b54af, type: 2}
      propertyPath: m_LocalPosition.z
      value: 0
      objectReference: {fileID: 0}
    - target: {fileID: 467324, guid: 214de7dc16249324db357bf6519b54af, type: 2}
      propertyPath: m_LocalRotation.x
      value: 0
      objectReference: {fileID: 0}
    - target: {fileID: 467324, guid: 214de7dc16249324db357bf6519b54af, type: 2}
      propertyPath: m_LocalRotation.y
      value: 0
      objectReference: {fileID: 0}
    - target: {fileID: 467324, guid: 214de7dc16249324db357bf6519b54af, type: 2}
      propertyPath: m_LocalRotation.z
      value: 0
      objectReference: {fileID: 0}
    - target: {fileID: 467324, guid: 214de7dc16249324db357bf6519b54af, type: 2}
      propertyPath: m_LocalRotation.w
      value: 1
      objectReference: {fileID: 0}
    - target: {fileID: 467324, guid: 214de7dc16249324db357bf6519b54af, type: 2}
      propertyPath: m_RootOrder
      value: 6
      objectReference: {fileID: 0}
    m_RemovedComponents: []
  m_ParentPrefab: {fileID: 100100000, guid: 214de7dc16249324db357bf6519b54af, type: 2}
  m_RootGameObject: {fileID: 1120722369}
  m_IsPrefabParent: 0
--- !u!1001 &238787020
Prefab:
  m_ObjectHideFlags: 0
  serializedVersion: 2
  m_Modification:
    m_TransformParent: {fileID: 0}
    m_Modifications:
    - target: {fileID: 479206, guid: b598827f1c446cd418f04b56aa829b8c, type: 2}
      propertyPath: m_LocalPosition.x
      value: 0
      objectReference: {fileID: 0}
    - target: {fileID: 479206, guid: b598827f1c446cd418f04b56aa829b8c, type: 2}
      propertyPath: m_LocalPosition.y
      value: 0
      objectReference: {fileID: 0}
    - target: {fileID: 479206, guid: b598827f1c446cd418f04b56aa829b8c, type: 2}
      propertyPath: m_LocalPosition.z
      value: 0
      objectReference: {fileID: 0}
    - target: {fileID: 479206, guid: b598827f1c446cd418f04b56aa829b8c, type: 2}
      propertyPath: m_LocalRotation.x
      value: 0
      objectReference: {fileID: 0}
    - target: {fileID: 479206, guid: b598827f1c446cd418f04b56aa829b8c, type: 2}
      propertyPath: m_LocalRotation.y
      value: 0
      objectReference: {fileID: 0}
    - target: {fileID: 479206, guid: b598827f1c446cd418f04b56aa829b8c, type: 2}
      propertyPath: m_LocalRotation.z
      value: 0
      objectReference: {fileID: 0}
    - target: {fileID: 479206, guid: b598827f1c446cd418f04b56aa829b8c, type: 2}
      propertyPath: m_LocalRotation.w
      value: 1
      objectReference: {fileID: 0}
    - target: {fileID: 479206, guid: b598827f1c446cd418f04b56aa829b8c, type: 2}
      propertyPath: m_RootOrder
      value: 5
      objectReference: {fileID: 0}
    m_RemovedComponents: []
  m_ParentPrefab: {fileID: 100100000, guid: b598827f1c446cd418f04b56aa829b8c, type: 2}
  m_RootGameObject: {fileID: 1137690713}
  m_IsPrefabParent: 0
--- !u!1 &302744679
GameObject:
  m_ObjectHideFlags: 0
  m_PrefabParentObject: {fileID: 178850, guid: 2c7f485a067bff74db05d7368b770469, type: 2}
  m_PrefabInternal: {fileID: 553428113}
  serializedVersion: 5
  m_Component:
  - component: {fileID: 302744680}
  m_Layer: 0
  m_Name: mountain_canyon_05
  m_TagString: Untagged
  m_Icon: {fileID: 0}
  m_NavMeshLayer: 0
  m_StaticEditorFlags: 0
  m_IsActive: 1
--- !u!4 &302744680
Transform:
  m_ObjectHideFlags: 0
  m_PrefabParentObject: {fileID: 409282, guid: 2c7f485a067bff74db05d7368b770469, type: 2}
  m_PrefabInternal: {fileID: 553428113}
  m_GameObject: {fileID: 302744679}
  m_LocalRotation: {x: 0, y: 0, z: 0, w: 1}
  m_LocalPosition: {x: 0, y: 0, z: 0}
  m_LocalScale: {x: 1, y: 1, z: 1}
  m_Children:
  - {fileID: 324502065}
  m_Father: {fileID: 0}
  m_RootOrder: 2
  m_LocalEulerAnglesHint: {x: 0, y: 0, z: 0}
--- !u!1 &324502064
GameObject:
  m_ObjectHideFlags: 0
  m_PrefabParentObject: {fileID: 163480, guid: 2c7f485a067bff74db05d7368b770469, type: 2}
  m_PrefabInternal: {fileID: 553428113}
  serializedVersion: 5
  m_Component:
  - component: {fileID: 324502065}
  - component: {fileID: 324502067}
  - component: {fileID: 324502066}
  m_Layer: 0
  m_Name: default
  m_TagString: Untagged
  m_Icon: {fileID: 0}
  m_NavMeshLayer: 0
  m_StaticEditorFlags: 0
  m_IsActive: 1
--- !u!4 &324502065
Transform:
  m_ObjectHideFlags: 0
  m_PrefabParentObject: {fileID: 447464, guid: 2c7f485a067bff74db05d7368b770469, type: 2}
  m_PrefabInternal: {fileID: 553428113}
  m_GameObject: {fileID: 324502064}
  m_LocalRotation: {x: 0, y: 0, z: 0, w: 1}
  m_LocalPosition: {x: 0, y: 0, z: 0}
  m_LocalScale: {x: 1, y: 1, z: 1}
  m_Children: []
  m_Father: {fileID: 302744680}
  m_RootOrder: 0
  m_LocalEulerAnglesHint: {x: 0, y: 0, z: 0}
--- !u!23 &324502066
MeshRenderer:
  m_ObjectHideFlags: 0
  m_PrefabParentObject: {fileID: 2325056, guid: 2c7f485a067bff74db05d7368b770469,
    type: 2}
  m_PrefabInternal: {fileID: 553428113}
  m_GameObject: {fileID: 324502064}
  m_Enabled: 1
  m_CastShadows: 1
  m_ReceiveShadows: 1
  m_DynamicOccludee: 1
  m_MotionVectors: 1
  m_LightProbeUsage: 1
  m_ReflectionProbeUsage: 1
  m_Materials:
  - {fileID: 2100000, guid: a1fa3f80697dd474fbcf19014ed6cecd, type: 2}
  m_StaticBatchInfo:
    firstSubMesh: 0
    subMeshCount: 0
  m_StaticBatchRoot: {fileID: 0}
  m_ProbeAnchor: {fileID: 0}
  m_LightProbeVolumeOverride: {fileID: 0}
  m_ScaleInLightmap: 1
  m_PreserveUVs: 0
  m_IgnoreNormalsForChartDetection: 0
  m_ImportantGI: 0
  m_StitchLightmapSeams: 0
  m_SelectedEditorRenderState: 3
  m_MinimumChartSize: 4
  m_AutoUVMaxDistance: 0.5
  m_AutoUVMaxAngle: 89
  m_LightmapParameters: {fileID: 0}
  m_SortingLayerID: 0
  m_SortingLayer: 0
  m_SortingOrder: 0
--- !u!33 &324502067
MeshFilter:
  m_ObjectHideFlags: 0
  m_PrefabParentObject: {fileID: 3364102, guid: 2c7f485a067bff74db05d7368b770469,
    type: 2}
  m_PrefabInternal: {fileID: 553428113}
  m_GameObject: {fileID: 324502064}
  m_Mesh: {fileID: 4300000, guid: 8397403825a204248bad08ac23c8a2aa, type: 3}
--- !u!1001 &553428113
Prefab:
  m_ObjectHideFlags: 0
  serializedVersion: 2
  m_Modification:
    m_TransformParent: {fileID: 0}
    m_Modifications:
    - target: {fileID: 409282, guid: 2c7f485a067bff74db05d7368b770469, type: 2}
      propertyPath: m_LocalPosition.x
      value: 0
      objectReference: {fileID: 0}
    - target: {fileID: 409282, guid: 2c7f485a067bff74db05d7368b770469, type: 2}
      propertyPath: m_LocalPosition.y
      value: 0
      objectReference: {fileID: 0}
    - target: {fileID: 409282, guid: 2c7f485a067bff74db05d7368b770469, type: 2}
      propertyPath: m_LocalPosition.z
      value: 0
      objectReference: {fileID: 0}
    - target: {fileID: 409282, guid: 2c7f485a067bff74db05d7368b770469, type: 2}
      propertyPath: m_LocalRotation.x
      value: 0
      objectReference: {fileID: 0}
    - target: {fileID: 409282, guid: 2c7f485a067bff74db05d7368b770469, type: 2}
      propertyPath: m_LocalRotation.y
      value: 0
      objectReference: {fileID: 0}
    - target: {fileID: 409282, guid: 2c7f485a067bff74db05d7368b770469, type: 2}
      propertyPath: m_LocalRotation.z
      value: 0
      objectReference: {fileID: 0}
    - target: {fileID: 409282, guid: 2c7f485a067bff74db05d7368b770469, type: 2}
      propertyPath: m_LocalRotation.w
      value: 1
      objectReference: {fileID: 0}
    - target: {fileID: 409282, guid: 2c7f485a067bff74db05d7368b770469, type: 2}
      propertyPath: m_RootOrder
      value: 2
      objectReference: {fileID: 0}
    m_RemovedComponents: []
  m_ParentPrefab: {fileID: 100100000, guid: 2c7f485a067bff74db05d7368b770469, type: 2}
  m_RootGameObject: {fileID: 302744679}
  m_IsPrefabParent: 0
--- !u!1001 &555508115
Prefab:
  m_ObjectHideFlags: 0
  serializedVersion: 2
  m_Modification:
    m_TransformParent: {fileID: 0}
    m_Modifications:
    - target: {fileID: 494284, guid: dc429c520592d0249982bd99760652f7, type: 2}
      propertyPath: m_LocalPosition.x
      value: 0
      objectReference: {fileID: 0}
    - target: {fileID: 494284, guid: dc429c520592d0249982bd99760652f7, type: 2}
      propertyPath: m_LocalPosition.y
      value: 0
      objectReference: {fileID: 0}
    - target: {fileID: 494284, guid: dc429c520592d0249982bd99760652f7, type: 2}
      propertyPath: m_LocalPosition.z
      value: 0
      objectReference: {fileID: 0}
    - target: {fileID: 494284, guid: dc429c520592d0249982bd99760652f7, type: 2}
      propertyPath: m_LocalRotation.x
      value: 0
      objectReference: {fileID: 0}
    - target: {fileID: 494284, guid: dc429c520592d0249982bd99760652f7, type: 2}
      propertyPath: m_LocalRotation.y
      value: 0
      objectReference: {fileID: 0}
    - target: {fileID: 494284, guid: dc429c520592d0249982bd99760652f7, type: 2}
      propertyPath: m_LocalRotation.z
      value: 0
      objectReference: {fileID: 0}
    - target: {fileID: 494284, guid: dc429c520592d0249982bd99760652f7, type: 2}
      propertyPath: m_LocalRotation.w
      value: 1
      objectReference: {fileID: 0}
    - target: {fileID: 494284, guid: dc429c520592d0249982bd99760652f7, type: 2}
      propertyPath: m_RootOrder
      value: 3
      objectReference: {fileID: 0}
    m_RemovedComponents: []
  m_ParentPrefab: {fileID: 100100000, guid: dc429c520592d0249982bd99760652f7, type: 2}
  m_RootGameObject: {fileID: 23538588}
  m_IsPrefabParent: 0
--- !u!1 &768759759
GameObject:
  m_ObjectHideFlags: 0
  m_PrefabParentObject: {fileID: 0}
  m_PrefabInternal: {fileID: 0}
  serializedVersion: 5
  m_Component:
  - component: {fileID: 768759764}
  - component: {fileID: 768759763}
  - component: {fileID: 768759762}
  - component: {fileID: 768759761}
  - component: {fileID: 768759760}
  m_Layer: 0
  m_Name: Main Camera
  m_TagString: MainCamera
  m_Icon: {fileID: 0}
  m_NavMeshLayer: 0
  m_StaticEditorFlags: 0
  m_IsActive: 1
--- !u!81 &768759760
AudioListener:
  m_ObjectHideFlags: 0
  m_PrefabParentObject: {fileID: 0}
  m_PrefabInternal: {fileID: 0}
  m_GameObject: {fileID: 768759759}
  m_Enabled: 1
--- !u!124 &768759761
Behaviour:
  m_ObjectHideFlags: 0
  m_PrefabParentObject: {fileID: 0}
  m_PrefabInternal: {fileID: 0}
  m_GameObject: {fileID: 768759759}
  m_Enabled: 1
--- !u!92 &768759762
Behaviour:
  m_ObjectHideFlags: 0
  m_PrefabParentObject: {fileID: 0}
  m_PrefabInternal: {fileID: 0}
  m_GameObject: {fileID: 768759759}
  m_Enabled: 1
--- !u!20 &768759763
Camera:
  m_ObjectHideFlags: 0
  m_PrefabParentObject: {fileID: 0}
  m_PrefabInternal: {fileID: 0}
  m_GameObject: {fileID: 768759759}
  m_Enabled: 1
  serializedVersion: 2
  m_ClearFlags: 1
  m_BackGroundColor: {r: 0.19215687, g: 0.3019608, b: 0.4745098, a: 0.019607844}
  m_NormalizedViewPortRect:
    serializedVersion: 2
    x: 0
    y: 0
    width: 1
    height: 1
  near clip plane: 0.3
  far clip plane: 1000
  field of view: 60
  orthographic: 0
  orthographic size: 5
  m_Depth: -1
  m_CullingMask:
    serializedVersion: 2
    m_Bits: 4294967295
  m_RenderingPath: -1
  m_TargetTexture: {fileID: 0}
  m_TargetDisplay: 0
  m_TargetEye: 3
  m_HDR: 0
  m_AllowMSAA: 1
  m_AllowDynamicResolution: 0
  m_ForceIntoRT: 0
  m_OcclusionCulling: 1
  m_StereoConvergence: 10
  m_StereoSeparation: 0.022
--- !u!4 &768759764
Transform:
  m_ObjectHideFlags: 0
  m_PrefabParentObject: {fileID: 0}
  m_PrefabInternal: {fileID: 0}
  m_GameObject: {fileID: 768759759}
  m_LocalRotation: {x: 0, y: 0, z: 0, w: 1}
  m_LocalPosition: {x: -7.5932083, y: 10.569521, z: -72.81357}
  m_LocalScale: {x: 1, y: 1, z: 1}
  m_Children: []
  m_Father: {fileID: 0}
  m_RootOrder: 0
  m_LocalEulerAnglesHint: {x: 0, y: 0, z: 0}
--- !u!1 &967759355
GameObject:
  m_ObjectHideFlags: 0
  m_PrefabParentObject: {fileID: 138964, guid: dc429c520592d0249982bd99760652f7, type: 2}
  m_PrefabInternal: {fileID: 555508115}
  serializedVersion: 5
  m_Component:
  - component: {fileID: 967759356}
  - component: {fileID: 967759358}
  - component: {fileID: 967759357}
  m_Layer: 0
  m_Name: default
  m_TagString: Untagged
  m_Icon: {fileID: 0}
  m_NavMeshLayer: 0
  m_StaticEditorFlags: 0
  m_IsActive: 1
--- !u!4 &967759356
Transform:
  m_ObjectHideFlags: 0
  m_PrefabParentObject: {fileID: 433708, guid: dc429c520592d0249982bd99760652f7, type: 2}
  m_PrefabInternal: {fileID: 555508115}
  m_GameObject: {fileID: 967759355}
  m_LocalRotation: {x: 0, y: 0, z: 0, w: 1}
  m_LocalPosition: {x: 0, y: 0, z: 0}
  m_LocalScale: {x: 1, y: 1, z: 1}
  m_Children: []
  m_Father: {fileID: 23538589}
  m_RootOrder: 0
  m_LocalEulerAnglesHint: {x: 0, y: 0, z: 0}
--- !u!23 &967759357
MeshRenderer:
  m_ObjectHideFlags: 0
  m_PrefabParentObject: {fileID: 2310936, guid: dc429c520592d0249982bd99760652f7,
    type: 2}
  m_PrefabInternal: {fileID: 555508115}
  m_GameObject: {fileID: 967759355}
  m_Enabled: 1
  m_CastShadows: 1
  m_ReceiveShadows: 1
  m_DynamicOccludee: 1
  m_MotionVectors: 1
  m_LightProbeUsage: 1
  m_ReflectionProbeUsage: 1
  m_Materials:
  - {fileID: 2100000, guid: 2f8abdea7c7bbea4c8fa2ac249ce5621, type: 2}
  m_StaticBatchInfo:
    firstSubMesh: 0
    subMeshCount: 0
  m_StaticBatchRoot: {fileID: 0}
  m_ProbeAnchor: {fileID: 0}
  m_LightProbeVolumeOverride: {fileID: 0}
  m_ScaleInLightmap: 1
  m_PreserveUVs: 0
  m_IgnoreNormalsForChartDetection: 0
  m_ImportantGI: 0
  m_StitchLightmapSeams: 0
  m_SelectedEditorRenderState: 3
  m_MinimumChartSize: 4
  m_AutoUVMaxDistance: 0.5
  m_AutoUVMaxAngle: 89
  m_LightmapParameters: {fileID: 0}
  m_SortingLayerID: 0
  m_SortingLayer: 0
  m_SortingOrder: 0
--- !u!33 &967759358
MeshFilter:
  m_ObjectHideFlags: 0
  m_PrefabParentObject: {fileID: 3361410, guid: dc429c520592d0249982bd99760652f7,
    type: 2}
  m_PrefabInternal: {fileID: 555508115}
  m_GameObject: {fileID: 967759355}
  m_Mesh: {fileID: 4300000, guid: 1e022be0df1692146b0fa58d5600183b, type: 3}
--- !u!1 &1020768607
GameObject:
  m_ObjectHideFlags: 0
  m_PrefabParentObject: {fileID: 186634, guid: 3b2f560dc059d4441921a0855afbcc03, type: 2}
  m_PrefabInternal: {fileID: 1677820173}
  serializedVersion: 5
  m_Component:
  - component: {fileID: 1020768608}
  - component: {fileID: 1020768610}
  - component: {fileID: 1020768609}
  m_Layer: 0
  m_Name: default
  m_TagString: Untagged
  m_Icon: {fileID: 0}
  m_NavMeshLayer: 0
  m_StaticEditorFlags: 0
  m_IsActive: 1
--- !u!4 &1020768608
Transform:
  m_ObjectHideFlags: 0
  m_PrefabParentObject: {fileID: 431920, guid: 3b2f560dc059d4441921a0855afbcc03, type: 2}
  m_PrefabInternal: {fileID: 1677820173}
  m_GameObject: {fileID: 1020768607}
  m_LocalRotation: {x: 0, y: 0, z: 0, w: 1}
  m_LocalPosition: {x: 0, y: 0, z: 0}
  m_LocalScale: {x: 1, y: 1, z: 1}
  m_Children: []
  m_Father: {fileID: 1703530738}
  m_RootOrder: 0
  m_LocalEulerAnglesHint: {x: 0, y: 0, z: 0}
--- !u!23 &1020768609
MeshRenderer:
  m_ObjectHideFlags: 0
  m_PrefabParentObject: {fileID: 2389218, guid: 3b2f560dc059d4441921a0855afbcc03,
    type: 2}
  m_PrefabInternal: {fileID: 1677820173}
  m_GameObject: {fileID: 1020768607}
  m_Enabled: 1
  m_CastShadows: 1
  m_ReceiveShadows: 1
  m_DynamicOccludee: 1
  m_MotionVectors: 1
  m_LightProbeUsage: 1
  m_ReflectionProbeUsage: 1
  m_Materials:
  - {fileID: 2100000, guid: 5690301a056eb7141b07f4ff7c3d8e93, type: 2}
  m_StaticBatchInfo:
    firstSubMesh: 0
    subMeshCount: 0
  m_StaticBatchRoot: {fileID: 0}
  m_ProbeAnchor: {fileID: 0}
  m_LightProbeVolumeOverride: {fileID: 0}
  m_ScaleInLightmap: 1
  m_PreserveUVs: 0
  m_IgnoreNormalsForChartDetection: 0
  m_ImportantGI: 0
  m_StitchLightmapSeams: 0
  m_SelectedEditorRenderState: 3
  m_MinimumChartSize: 4
  m_AutoUVMaxDistance: 0.5
  m_AutoUVMaxAngle: 89
  m_LightmapParameters: {fileID: 0}
  m_SortingLayerID: 0
  m_SortingLayer: 0
  m_SortingOrder: 0
--- !u!33 &1020768610
MeshFilter:
  m_ObjectHideFlags: 0
  m_PrefabParentObject: {fileID: 3354048, guid: 3b2f560dc059d4441921a0855afbcc03,
    type: 2}
  m_PrefabInternal: {fileID: 1677820173}
  m_GameObject: {fileID: 1020768607}
  m_Mesh: {fileID: 4300000, guid: 658282e867a64f44fbda1c7c5b175cde, type: 3}
--- !u!1 &1099907028
GameObject:
  m_ObjectHideFlags: 0
  m_PrefabParentObject: {fileID: 101670, guid: b598827f1c446cd418f04b56aa829b8c, type: 2}
  m_PrefabInternal: {fileID: 238787020}
  serializedVersion: 5
  m_Component:
  - component: {fileID: 1099907029}
  - component: {fileID: 1099907031}
  - component: {fileID: 1099907030}
  m_Layer: 0
  m_Name: default
  m_TagString: Untagged
  m_Icon: {fileID: 0}
  m_NavMeshLayer: 0
  m_StaticEditorFlags: 0
  m_IsActive: 1
--- !u!4 &1099907029
Transform:
  m_ObjectHideFlags: 0
  m_PrefabParentObject: {fileID: 477082, guid: b598827f1c446cd418f04b56aa829b8c, type: 2}
  m_PrefabInternal: {fileID: 238787020}
  m_GameObject: {fileID: 1099907028}
  m_LocalRotation: {x: 0, y: 0, z: 0, w: 1}
  m_LocalPosition: {x: 0, y: 0, z: 0}
  m_LocalScale: {x: 1, y: 1, z: 1}
  m_Children: []
  m_Father: {fileID: 1137690714}
  m_RootOrder: 0
  m_LocalEulerAnglesHint: {x: 0, y: 0, z: 0}
--- !u!23 &1099907030
MeshRenderer:
  m_ObjectHideFlags: 0
  m_PrefabParentObject: {fileID: 2386646, guid: b598827f1c446cd418f04b56aa829b8c,
    type: 2}
  m_PrefabInternal: {fileID: 238787020}
  m_GameObject: {fileID: 1099907028}
  m_Enabled: 1
  m_CastShadows: 1
  m_ReceiveShadows: 1
  m_DynamicOccludee: 1
  m_MotionVectors: 1
  m_LightProbeUsage: 1
  m_ReflectionProbeUsage: 1
  m_Materials:
  - {fileID: 2100000, guid: 2edd491d1dc0abb4bb1ddc0cfcacfe72, type: 2}
  m_StaticBatchInfo:
    firstSubMesh: 0
    subMeshCount: 0
  m_StaticBatchRoot: {fileID: 0}
  m_ProbeAnchor: {fileID: 0}
  m_LightProbeVolumeOverride: {fileID: 0}
  m_ScaleInLightmap: 1
  m_PreserveUVs: 0
  m_IgnoreNormalsForChartDetection: 0
  m_ImportantGI: 0
  m_StitchLightmapSeams: 0
  m_SelectedEditorRenderState: 3
  m_MinimumChartSize: 4
  m_AutoUVMaxDistance: 0.5
  m_AutoUVMaxAngle: 89
  m_LightmapParameters: {fileID: 0}
  m_SortingLayerID: 0
  m_SortingLayer: 0
  m_SortingOrder: 0
--- !u!33 &1099907031
MeshFilter:
  m_ObjectHideFlags: 0
  m_PrefabParentObject: {fileID: 3349092, guid: b598827f1c446cd418f04b56aa829b8c,
    type: 2}
  m_PrefabInternal: {fileID: 238787020}
  m_GameObject: {fileID: 1099907028}
  m_Mesh: {fileID: 4300000, guid: 526d3584e1fc6fe40ae4ea57c99eee0b, type: 3}
--- !u!1 &1120722369
GameObject:
  m_ObjectHideFlags: 0
  m_PrefabParentObject: {fileID: 185508, guid: 214de7dc16249324db357bf6519b54af, type: 2}
  m_PrefabInternal: {fileID: 118179586}
  serializedVersion: 5
  m_Component:
  - component: {fileID: 1120722370}
  m_Layer: 0
  m_Name: mountain_canyon_01
  m_TagString: Untagged
  m_Icon: {fileID: 0}
  m_NavMeshLayer: 0
  m_StaticEditorFlags: 0
  m_IsActive: 1
--- !u!4 &1120722370
Transform:
  m_ObjectHideFlags: 0
  m_PrefabParentObject: {fileID: 467324, guid: 214de7dc16249324db357bf6519b54af, type: 2}
  m_PrefabInternal: {fileID: 118179586}
  m_GameObject: {fileID: 1120722369}
  m_LocalRotation: {x: 0, y: 0, z: 0, w: 1}
  m_LocalPosition: {x: 0, y: 0, z: 0}
  m_LocalScale: {x: 1, y: 1, z: 1}
  m_Children:
  - {fileID: 2073317990}
  m_Father: {fileID: 0}
  m_RootOrder: 6
  m_LocalEulerAnglesHint: {x: 0, y: 0, z: 0}
--- !u!1 &1137690713
GameObject:
  m_ObjectHideFlags: 0
  m_PrefabParentObject: {fileID: 138850, guid: b598827f1c446cd418f04b56aa829b8c, type: 2}
  m_PrefabInternal: {fileID: 238787020}
  serializedVersion: 5
  m_Component:
  - component: {fileID: 1137690714}
  m_Layer: 0
  m_Name: mountain_canyon_02
  m_TagString: Untagged
  m_Icon: {fileID: 0}
  m_NavMeshLayer: 0
  m_StaticEditorFlags: 0
  m_IsActive: 1
--- !u!4 &1137690714
Transform:
  m_ObjectHideFlags: 0
  m_PrefabParentObject: {fileID: 479206, guid: b598827f1c446cd418f04b56aa829b8c, type: 2}
  m_PrefabInternal: {fileID: 238787020}
  m_GameObject: {fileID: 1137690713}
  m_LocalRotation: {x: 0, y: 0, z: 0, w: 1}
  m_LocalPosition: {x: 0, y: 0, z: 0}
  m_LocalScale: {x: 1, y: 1, z: 1}
  m_Children:
  - {fileID: 1099907029}
  m_Father: {fileID: 0}
  m_RootOrder: 5
  m_LocalEulerAnglesHint: {x: 0, y: 0, z: 0}
--- !u!1001 &1677820173
Prefab:
  m_ObjectHideFlags: 0
  serializedVersion: 2
  m_Modification:
    m_TransformParent: {fileID: 0}
    m_Modifications:
    - target: {fileID: 457404, guid: 3b2f560dc059d4441921a0855afbcc03, type: 2}
      propertyPath: m_LocalPosition.x
      value: 0
      objectReference: {fileID: 0}
    - target: {fileID: 457404, guid: 3b2f560dc059d4441921a0855afbcc03, type: 2}
      propertyPath: m_LocalPosition.y
      value: 0
      objectReference: {fileID: 0}
    - target: {fileID: 457404, guid: 3b2f560dc059d4441921a0855afbcc03, type: 2}
      propertyPath: m_LocalPosition.z
      value: 0
      objectReference: {fileID: 0}
    - target: {fileID: 457404, guid: 3b2f560dc059d4441921a0855afbcc03, type: 2}
      propertyPath: m_LocalRotation.x
      value: 0
      objectReference: {fileID: 0}
    - target: {fileID: 457404, guid: 3b2f560dc059d4441921a0855afbcc03, type: 2}
      propertyPath: m_LocalRotation.y
      value: 0
      objectReference: {fileID: 0}
    - target: {fileID: 457404, guid: 3b2f560dc059d4441921a0855afbcc03, type: 2}
      propertyPath: m_LocalRotation.z
      value: 0
      objectReference: {fileID: 0}
    - target: {fileID: 457404, guid: 3b2f560dc059d4441921a0855afbcc03, type: 2}
      propertyPath: m_LocalRotation.w
      value: 1
      objectReference: {fileID: 0}
    - target: {fileID: 457404, guid: 3b2f560dc059d4441921a0855afbcc03, type: 2}
      propertyPath: m_RootOrder
      value: 4
      objectReference: {fileID: 0}
    m_RemovedComponents: []
  m_ParentPrefab: {fileID: 100100000, guid: 3b2f560dc059d4441921a0855afbcc03, type: 2}
  m_RootGameObject: {fileID: 1703530737}
  m_IsPrefabParent: 0
--- !u!1 &1703530737
GameObject:
  m_ObjectHideFlags: 0
  m_PrefabParentObject: {fileID: 128692, guid: 3b2f560dc059d4441921a0855afbcc03, type: 2}
  m_PrefabInternal: {fileID: 1677820173}
  serializedVersion: 5
  m_Component:
  - component: {fileID: 1703530738}
  m_Layer: 0
  m_Name: mountain_canyon_03
  m_TagString: Untagged
  m_Icon: {fileID: 0}
  m_NavMeshLayer: 0
  m_StaticEditorFlags: 0
  m_IsActive: 1
--- !u!4 &1703530738
Transform:
  m_ObjectHideFlags: 0
  m_PrefabParentObject: {fileID: 457404, guid: 3b2f560dc059d4441921a0855afbcc03, type: 2}
  m_PrefabInternal: {fileID: 1677820173}
  m_GameObject: {fileID: 1703530737}
  m_LocalRotation: {x: 0, y: 0, z: 0, w: 1}
  m_LocalPosition: {x: 0, y: 0, z: 0}
  m_LocalScale: {x: 1, y: 1, z: 1}
  m_Children:
  - {fileID: 1020768608}
  m_Father: {fileID: 0}
  m_RootOrder: 4
  m_LocalEulerAnglesHint: {x: 0, y: 0, z: 0}
--- !u!1 &1962979788
GameObject:
  m_ObjectHideFlags: 0
  m_PrefabParentObject: {fileID: 0}
  m_PrefabInternal: {fileID: 0}
  serializedVersion: 5
  m_Component:
  - component: {fileID: 1962979790}
  - component: {fileID: 1962979789}
  m_Layer: 0
  m_Name: Directional Light
  m_TagString: Untagged
  m_Icon: {fileID: 0}
  m_NavMeshLayer: 0
  m_StaticEditorFlags: 0
  m_IsActive: 1
--- !u!108 &1962979789
Light:
  m_ObjectHideFlags: 0
  m_PrefabParentObject: {fileID: 0}
  m_PrefabInternal: {fileID: 0}
  m_GameObject: {fileID: 1962979788}
  m_Enabled: 1
  serializedVersion: 8
  m_Type: 1
  m_Color: {r: 1, g: 0.95686275, b: 0.8392157, a: 1}
  m_Intensity: 1
  m_Range: 10
  m_SpotAngle: 30
  m_CookieSize: 10
  m_Shadows:
    m_Type: 2
    m_Resolution: -1
    m_CustomResolution: -1
    m_Strength: 1
    m_Bias: 0.05
    m_NormalBias: 0.4
    m_NearPlane: 0.2
  m_Cookie: {fileID: 0}
  m_DrawHalo: 0
  m_Flare: {fileID: 0}
  m_RenderMode: 0
  m_CullingMask:
    serializedVersion: 2
    m_Bits: 4294967295
  m_Lightmapping: 4
  m_AreaSize: {x: 1, y: 1}
  m_BounceIntensity: 1
  m_ColorTemperature: 6570
  m_UseColorTemperature: 0
  m_ShadowRadius: 0
  m_ShadowAngle: 0
--- !u!4 &1962979790
Transform:
  m_ObjectHideFlags: 0
  m_PrefabParentObject: {fileID: 0}
  m_PrefabInternal: {fileID: 0}
  m_GameObject: {fileID: 1962979788}
  m_LocalRotation: {x: 0.40821794, y: -0.23456973, z: 0.109381676, w: 0.87542605}
  m_LocalPosition: {x: 0, y: 3, z: 0}
  m_LocalScale: {x: 1, y: 1, z: 1}
  m_Children: []
  m_Father: {fileID: 0}
  m_RootOrder: 1
  m_LocalEulerAnglesHint: {x: 0, y: 0, z: 0}
--- !u!1 &2073317989
GameObject:
  m_ObjectHideFlags: 0
  m_PrefabParentObject: {fileID: 150540, guid: 214de7dc16249324db357bf6519b54af, type: 2}
  m_PrefabInternal: {fileID: 118179586}
  serializedVersion: 5
  m_Component:
  - component: {fileID: 2073317990}
  - component: {fileID: 2073317992}
  - component: {fileID: 2073317991}
  m_Layer: 0
  m_Name: default
  m_TagString: Untagged
  m_Icon: {fileID: 0}
  m_NavMeshLayer: 0
  m_StaticEditorFlags: 0
  m_IsActive: 1
--- !u!4 &2073317990
Transform:
  m_ObjectHideFlags: 0
  m_PrefabParentObject: {fileID: 476108, guid: 214de7dc16249324db357bf6519b54af, type: 2}
  m_PrefabInternal: {fileID: 118179586}
  m_GameObject: {fileID: 2073317989}
  m_LocalRotation: {x: 0, y: 0, z: 0, w: 1}
  m_LocalPosition: {x: 0, y: 0, z: 0}
  m_LocalScale: {x: 1, y: 1, z: 1}
  m_Children: []
  m_Father: {fileID: 1120722370}
  m_RootOrder: 0
  m_LocalEulerAnglesHint: {x: 0, y: 0, z: 0}
--- !u!23 &2073317991
MeshRenderer:
  m_ObjectHideFlags: 0
  m_PrefabParentObject: {fileID: 2395494, guid: 214de7dc16249324db357bf6519b54af,
    type: 2}
  m_PrefabInternal: {fileID: 118179586}
  m_GameObject: {fileID: 2073317989}
  m_Enabled: 1
  m_CastShadows: 1
  m_ReceiveShadows: 1
  m_DynamicOccludee: 1
  m_MotionVectors: 1
  m_LightProbeUsage: 1
  m_ReflectionProbeUsage: 1
  m_Materials:
  - {fileID: 2100000, guid: b18c3cf3a6c308049a31b29ca20a90b4, type: 2}
  m_StaticBatchInfo:
    firstSubMesh: 0
    subMeshCount: 0
  m_StaticBatchRoot: {fileID: 0}
  m_ProbeAnchor: {fileID: 0}
  m_LightProbeVolumeOverride: {fileID: 0}
  m_ScaleInLightmap: 1
  m_PreserveUVs: 0
  m_IgnoreNormalsForChartDetection: 0
  m_ImportantGI: 0
  m_StitchLightmapSeams: 0
  m_SelectedEditorRenderState: 3
  m_MinimumChartSize: 4
  m_AutoUVMaxDistance: 0.5
  m_AutoUVMaxAngle: 89
  m_LightmapParameters: {fileID: 0}
  m_SortingLayerID: 0
  m_SortingLayer: 0
  m_SortingOrder: 0
--- !u!33 &2073317992
MeshFilter:
  m_ObjectHideFlags: 0
  m_PrefabParentObject: {fileID: 3378330, guid: 214de7dc16249324db357bf6519b54af,
    type: 2}
  m_PrefabInternal: {fileID: 118179586}
  m_GameObject: {fileID: 2073317989}
  m_Mesh: {fileID: 4300000, guid: e229e536c751f96498b74b34fcf81d8a, type: 3}
